==8411== Memcheck, a memory error detector
==8411== Copyright (C) 2002-2017, and GNU GPL'd, by Julian Seward et al.
==8411== Using Valgrind-3.13.0 and LibVEX; rerun with -h for copyright info
==8411== Command: /rhome/n/nmusic1/workspace/RA/LAB1/.runme
==8411== Parent PID: 8398
==8411== 
==8411== 
==8411== HEAP SUMMARY:
==8411==     in use at exit: 384 bytes in 2 blocks
==8411==   total heap usage: 4 allocs, 2 frees, 9,128 bytes allocated
==8411== 
==8411== LEAK SUMMARY:
==8411==    definitely lost: 0 bytes in 0 blocks
==8411==    indirectly lost: 0 bytes in 0 blocks
==8411==      possibly lost: 0 bytes in 0 blocks
==8411==    still reachable: 384 bytes in 2 blocks
==8411==         suppressed: 0 bytes in 0 blocks
==8411== Reachable blocks (those to which a pointer was found) are not shown.
==8411== To see them, rerun with: --leak-check=full --show-leak-kinds=all
==8411== 
==8411== For counts of detected and suppressed errors, rerun with: -v
==8411== ERROR SUMMARY: 0 errors from 0 contexts (suppressed: 0 from 0)
